<?xml version="1.0" encoding="utf-8"?>
<!-- Generator: Adobe Illustrator 21.0.0, SVG Export Plug-In . SVG Version: 6.00 Build 0)  -->
<svg version="1.1" id="Layer_1" xmlns="http://www.w3.org/2000/svg" xmlns:xlink="http://www.w3.org/1999/xlink" x="0px" y="0px"
	 viewBox="0 0 168 48" style="enable-background:new 0 0 168 48;" xml:space="preserve">
<style type="text/css">
	.st0{fill:#FFFFFF;}
	.st1{opacity:0.25;fill:url(#SVGID_1_);}
</style>
<path class="st0" d="M46.5,46.9h10.8L31.4,2.2l0,0c-0.4-0.7-1.2-1.2-2.1-1.2c-0.9,0-1.7,0.5-2.1,1.2l-6.4,11.3
	c0,0,10.9,6.4,19.3,19.8c-3.9-3.8-9.2-6.2-14.9-6.2C11,27.1,1.4,46.9,1.4,46.9h12.7c1.9-8.1,8.4-14.1,16.2-14.1S44.7,39,46.5,46.9z"
	/>
<g>
	<path class="st0" d="M69.2,46.9c-7,0-11.1-4.8-11.1-12c0-7.3,3.9-12.5,11-12.5c1.9,0,3.7,0.4,4.7,0.7V11.7h2.6v33.6
		C75.1,46.1,72.1,46.9,69.2,46.9z M73.8,25.2c-0.8-0.3-2.9-0.7-4.5-0.7c-5.6,0-8.5,4.4-8.5,10.3c0,5.9,3,9.9,8.4,9.9
		c1.7,0,3.9-0.5,4.6-0.9V25.2z"/>
	<path class="st0" d="M84.6,17.3c-1,0-1.9-0.8-1.9-1.8c0-1,0.8-1.8,1.9-1.8c1,0,1.8,0.8,1.8,1.8C86.4,16.5,85.6,17.3,84.6,17.3z
		 M83.3,46.5V22.6h2.6v23.9H83.3z"/>
	<path class="st0" d="M98.5,46.9c-2.4,0-5.1-0.7-6.8-1.6l1-2c1.3,0.8,3.8,1.5,5.8,1.5c3.5,0,5.9-1.7,5.9-4.4c0-2.9-2.3-3.9-5.4-5.1
		c-3.5-1.3-6.6-2.8-6.6-6.9c0-3.5,2.7-6.2,7.6-6.2c2.5,0,4.8,0.7,6.3,1.6l-1,2c-1.1-0.8-3.1-1.5-5.1-1.5c-3.2,0-5.1,1.8-5.1,4
		c0,2.9,2.2,3.8,5.1,4.9c3.7,1.4,7,2.8,7,7.1C107,44.3,103.8,46.9,98.5,46.9z"/>
	<path class="st0" d="M120.2,46.7c-3.5,0-6.1-2-6.1-6V24.6h-3.7v-2h3.7v-5.9l2.5-1v6.9h5.4v2h-5.4v16.1c0,2.7,1.8,3.8,3.9,3.8
		c0.5,0,1.1-0.1,1.5-0.2v2.3C121.7,46.6,121,46.7,120.2,46.7z"/>
	<path class="st0" d="M145.6,33.5l-16.8,2.5c0.4,5.9,3.6,8.8,8.7,8.8c2.4,0,5-0.6,6.5-1.5l0.9,2c-1.6,0.9-4.4,1.6-7.4,1.6
		c-6.8,0-11.1-4.3-11.1-12.4c0-7.4,3.9-12.4,10.1-12.4c5.5,0,9.2,3.6,9.2,9.9C145.7,32.5,145.7,32.9,145.6,33.5z M136.5,24.2
		c-4.7,0-7.6,3.9-7.7,9.7l14.4-2.1C143.1,26.7,140.5,24.2,136.5,24.2z"/>
	<path class="st0" d="M160.9,46.9c-4.8,0-10.1-3.5-10.1-12.4c0-8.9,5.2-12.4,10.1-12.4c2.2,0,4.3,0.7,5.7,1.6l-0.9,2
		c-1.2-0.8-2.9-1.4-4.6-1.4c-3.6,0-7.6,2.7-7.6,10.2c0,7.5,4,10.2,7.6,10.2c1.7,0,3.4-0.6,4.6-1.4l0.9,2
		C165.1,46.3,163.1,46.9,160.9,46.9z"/>
</g>
<linearGradient id="SVGID_1_" gradientUnits="userSpaceOnUse" x1="4.4796" y1="38.6095" x2="43.6602" y2="38.6095">
	<stop  offset="0" style="stop-color:#FFFFFF"/>
	<stop  offset="0.1683" style="stop-color:#BCD0E4"/>
	<stop  offset="0.3332" style="stop-color:#83A7CD"/>
	<stop  offset="0.4909" style="stop-color:#5486BA"/>
	<stop  offset="0.6401" style="stop-color:#306CAB"/>
	<stop  offset="0.7787" style="stop-color:#1559A0"/>
	<stop  offset="0.9027" style="stop-color:#064E9A"/>
	<stop  offset="1" style="stop-color:#004A97"/>
</linearGradient>
<path class="st1" d="M30.3,32.8c5.4,0,10.3,3,13.3,7.6l0,0c-3.9-6.1-10.6-10.1-18.1-10.1c-10.1,0-18.5,7.1-21,16.7h9.6
	C16,38.8,22.5,32.8,30.3,32.8z"/>
</svg>
